<?xml version="1.0" encoding="UTF-8" standalone="no"?>
<svg
   width="25"
   height="25"
   viewBox="0 0 7.5 7.5"
   version="1.1"
   id="svg3"
   sodipodi:docname="favicon.svg"
   inkscape:version="1.3-dev (77bc73e, 2022-05-18)"
   xmlns:inkscape="http://www.inkscape.org/namespaces/inkscape"
   xmlns:sodipodi="http://sodipodi.sourceforge.net/DTD/sodipodi-0.dtd"
   xmlns="http://www.w3.org/2000/svg"
   xmlns:svg="http://www.w3.org/2000/svg">
  <sodipodi:namedview
     id="namedview2"
     pagecolor="#ffffff"
     bordercolor="#999999"
     borderopacity="1"
     inkscape:showpageshadow="0"
     inkscape:pageopacity="0"
     inkscape:pagecheckerboard="0"
     inkscape:deskcolor="#d1d1d1"
     showgrid="false"
     inkscape:zoom="13.767619"
     inkscape:cx="4.5396375"
     inkscape:cy="16.088475"
     inkscape:window-width="1398"
     inkscape:window-height="847"
     inkscape:window-x="0"
     inkscape:window-y="25"
     inkscape:window-maximized="1"
     inkscape:current-layer="svg3" />
  <defs
     id="defs1">
    <style
       id="style1">
      .a {
        fill: none;
        stroke-width: 3.2;
        stroke-linecap: round;
        stroke-linejoin: round;
      }
    </style>
  </defs>
  <g
     id="g3"
     transform="matrix(0.16363636,0,0,0.16363636,-0.14727272,-0.14727272)"
     inkscape:label="main">
    <circle
       class="a"
       cx="25.5"
       cy="21.299999"
       r="2.9000001"
       id="circle1"
       inkscape:label="inner-circle" />
    <circle
       class="a"
       cx="24"
       cy="24"
       r="21.5"
       id="circle2"
       inkscape:label="outer-circle" />
    <path
       class="a"
       d="M 20.35,2.846 A 19.7132,19.7132 0 0 0 44.8,29.316"
       id="path2"
       inkscape:label="upper-semi" />
    <path
       class="a"
       d="M 27.653,45.104 A 19.7356,19.7356 0 0 0 9.453,17.584 L 9.46,17.6 a 19.8015,19.8015 0 0 0 -6.25,1.05"
       id="path3"
       inkscape:label="lower-semi"
       style="display:inline" />
  </g>
  <style
     id="style2">
    #g3 {
      fill: #2a2a2a;
      stroke: #2a2a2a;
    }
    @media (prefers-color-scheme: dark) {
      #g3 {
        fill: #f1f5f9;
        stroke: #f1f5f9;
      }
    }
  </style>
</svg>
